%YAML 1.1
%TAG !u! tag:unity3d.com,2011:
--- !u!114 &-2258458318955675606
MonoBehaviour:
  m_ObjectHideFlags: 11
  m_CorrespondingSourceObject: {fileID: 0}
  m_PrefabInstance: {fileID: 0}
  m_PrefabAsset: {fileID: 0}
  m_GameObject: {fileID: 0}
  m_Enabled: 1
  m_EditorHideFlags: 0
  m_Script: {fileID: 11500000, guid: aa486462e6be1764e89c788ba30e61f7, type: 3}
  m_Name: 
  m_EditorClassIdentifier: 
  m_DiffusionProfileReferences:
  - {fileID: 11400000, guid: 78322c7f82657514ebe48203160e3f39, type: 2}
  m_MaterialReferences: []
--- !u!21 &2100000
Material:
  serializedVersion: 8
  m_ObjectHideFlags: 0
  m_CorrespondingSourceObject: {fileID: 0}
  m_PrefabInstance: {fileID: 0}
  m_PrefabAsset: {fileID: 0}
  m_Name: Detailed Grass 01 LOD1
  m_Shader: {fileID: 4800000, guid: 8b3898feb1c663b44bd2242beb1f553d, type: 3}
  m_ValidKeywords:
  - _BAKED_MESH_DATA
  - _COLOR_HSL
  - _DISABLE_DECALS
  - _LIGHTING_QUALITY_LOW
  - _SPECULARHIGHLIGHTS_OFF
  - _TRANSLUCENCY
  - _WIND
  m_InvalidKeywords:
  - _INTERACTION_OFF
  - _LINKMAPTILINGOFFSET_ON
  - _OVERLAY_OFF
  m_LightmapFlags: 4
  m_EnableInstancingVariants: 1
  m_DoubleSidedGI: 0
  m_CustomRenderQueue: 2000
  stringTagMap: {}
  disabledShaderPasses:
  - TransparentBackface
  - DistortionVectors
  - TransparentDepthPrepass
  - TransparentDepthPostpass
  m_SavedProperties:
    serializedVersion: 3
    m_TexEnvs:
    - _Albedo:
        m_Texture: {fileID: 2800000, guid: 3dd15d49c118f61499885324a339f8d5, type: 3}
        m_Scale: {x: 1, y: 1}
        m_Offset: {x: 0, y: 0}
    - _BumpMap:
        m_Texture: {fileID: 2800000, guid: 8f251482df167b54a80ce8a91ec829a2, type: 3}
        m_Scale: {x: 1, y: 1}
        m_Offset: {x: 0, y: 0}
    - _DetailAlbedoMap:
        m_Texture: {fileID: 0}
        m_Scale: {x: 1, y: 1}
        m_Offset: {x: 0, y: 0}
    - _DetailMask:
        m_Texture: {fileID: 0}
        m_Scale: {x: 1, y: 1}
        m_Offset: {x: 0, y: 0}
    - _DetailNormalMap:
        m_Texture: {fileID: 0}
        m_Scale: {x: 1, y: 1}
        m_Offset: {x: 0, y: 0}
    - _EmissionMap:
        m_Texture: {fileID: 0}
        m_Scale: {x: 1, y: 1}
        m_Offset: {x: 0, y: 0}
    - _MainTex:
        m_Texture: {fileID: 2800000, guid: 3dd15d49c118f61499885324a339f8d5, type: 3}
        m_Scale: {x: 1, y: 1}
        m_Offset: {x: 0, y: 0}
    - _MetallicGlossMap:
        m_Texture: {fileID: 2800000, guid: b4de55d41c47f8c4c8539247a0ac96e9, type: 3}
        m_Scale: {x: 1, y: 1}
        m_Offset: {x: 0, y: 0}
    - _NormalMap:
        m_Texture: {fileID: 2800000, guid: 8f251482df167b54a80ce8a91ec829a2, type: 3}
        m_Scale: {x: 1, y: 1}
        m_Offset: {x: 0, y: 0}
    - _OcclusionMap:
        m_Texture: {fileID: 0}
        m_Scale: {x: 1, y: 1}
        m_Offset: {x: 0, y: 0}
    - _PackedBumpMap:
        m_Texture: {fileID: 2800000, guid: 46255fc2f248b8640a0a14c315f770d7, type: 3}
        m_Scale: {x: 1, y: 1}
        m_Offset: {x: 0, y: 0}
    - _PackedMap:
        m_Texture: {fileID: 2800000, guid: b4de55d41c47f8c4c8539247a0ac96e9, type: 3}
        m_Scale: {x: 1, y: 1}
        m_Offset: {x: 0, y: 0}
    - _ParallaxMap:
        m_Texture: {fileID: 0}
        m_Scale: {x: 1, y: 1}
        m_Offset: {x: 0, y: 0}
    - _STOSMap:
        m_Texture: {fileID: 2800000, guid: b679fc9177c8e7046af1b4c9293c690b, type: 3}
        m_Scale: {x: 1, y: 1}
        m_Offset: {x: 0, y: 0}
    - _ThicknessMap:
        m_Texture: {fileID: 0}
        m_Scale: {x: 1, y: 1}
        m_Offset: {x: 0, y: 0}
    m_Ints: []
    m_Floats:
    - _AlphaTest: 0
    - _AlphaTestThreshold: 0.036
    - _AlphaToMask: 0
    - _BakedMeshData: 1
    - _BendAmplitude: 0.105
    - _BendFrequency: 0.334
    - _BumpScale: 1
    - _ColorCorrection: 1
    - _ColorVariationSpread: 0.2
    - _Cull: 0
    - _CullFarDistance: 10
    - _CullFarStart: 10000
    - _Cutoff: 0.5
    - _Decals: 0
    - _DetailNormalMapScale: 1
    - _DiffuseContrast: 0
    - _DiffusionProfileHash: 3.5648174
    - _DoubleSidedMode: 2
    - _DoubleSidedNormalMode: 1
    - _DstBlend: 0
    - _EdgeFlutterAmplitude: 0.1
    - _EdgeFlutterFrequency: 0.324
    - _EdgeStiffness: 0.526
    - _EmissionAffectedByAlbedo: 0
    - _EmissionExposureWeight: 1
    - _EmissionIntensity: 0
    - _EnableTouchReact: 0
    - _EnableWetness: 1
    - _EnableWind: 1
    - _GlossMapScale: 0.891
    - _Glossiness: 0.1
    - _GlossyReflections: 1
    - _Interaction: 0
    - _InteractionDuration: 1.5
    - _InteractionPushDown: 0.2
    - _InteractionStrength: 1
    - _LeafStiffness: 0.526
    - _LeafSwingAmplitude: 0.114
    - _LeafSwingFrequency: 0.324
    - _LightingQuality: 1
    - _LinkMapTilingOffset: 1
    - _Metallic: 0
    - _Mode: 1
    - _MotionVectors: 1
    - _NatureRendererDistanceControl: 1
    - _NoBendingUnderPivot: 1
    - _NormalMapScale: 0
    - _ObjectHeight: 0.5
    - _ObjectPhaseIncidence: 1
    - _ObjectRadius: 0.5
    - _OcclusionStrength: 1
    - _Overlay: 0
    - _Parallax: 0.02
    - _PerspectiveCorrection: 0
    - _Porosity: 0.266
    - _RecalculateWindNormals: 0.5
    - _SampleAlphaOverlay: 1
    - _SampleColorOverlay: 1
    - _ShowBlueChannel: 0
    - _ShowGreenChannel: 1
    - _ShowRedChannel: 0
    - _SmoothnessStrength: 1
    - _SmoothnessTextureChannel: 0
    - _SpecularHighlights: 0
    - _SrcBlend: 1
    - _StencilRef: 4
    - _StencilRefDepth: 0
    - _StencilRefDistortionVec: 4
    - _StencilRefGBuffer: 6
    - _StencilRefMV: 32
    - _StencilWriteMask: 6
    - _StencilWriteMaskDepth: 8
    - _StencilWriteMaskDistortionVec: 4
    - _StencilWriteMaskGBuffer: 14
    - _StencilWriteMaskMV: 40
    - _SurfaceMapMethod: 0
    - _TemporalAntiAliasing: 0
    - _TouchReactForce: 0.2
    - _Translucency: 1
    - _TranslucencyAmbient: 1
    - _TranslucencyAttenuation: 1
    - _TranslucencyBlendMode: 0
    - _TranslucencyDistortion: 0.25
    - _TranslucencyScattering: 2
    - _TranslucencyShadow: 0.9
    - _TranslucencyStrength: 1
    - _TurbulenceStrength: 1
    - _UVSec: 0
    - _VertexNormalStrength: 1
    - _VerticalEdgeFlutter: 1
    - _Wetness: 0.814
    - _WetnessType: 0
    - _Wind: 1
    - _WindStrength: 1
    - _WindVariation: 0
    - _WorldPosPhaseIncidence: 1
    - _ZTestForward: 4
    - _ZTestGBuffer: 4
    - _ZWrite: 1
    - __strip__additional_light_shadows: 1
    - __strip__additional_lights: 0
    - __strip__debug: 0
    - __strip__decals: 1
    - __strip__fog: 0
    - __strip__light_cookies: 1
    - __strip__light_layers: 0
    - __strip__lightmap: 1
    - __strip__lod_crossfade: 1
    - __strip__reflection_probe_blending: 1
    - __strip__reflection_probe_box_projection: 1
    - __strip__shadow_mask: 1
    m_Colors:
    - _Color: {r: 1, g: 1, b: 1, a: 1}
    - _DiffusionProfileAsset: {r: 2.2888926e+38, g: 1.2389358e-26, b: 7.69327e-37,
        a: 0.00018220427}
    - _EmissionColor: {r: 0, g: 0, b: 0, a: 1}
    - _FloatingOriginOffset_Color: {r: 0, g: 0, b: 0, a: 0}
    - _GlossRemap: {r: 0, g: 0.51202095, b: 0, a: 0}
    - _HSL: {r: -0.020996857, g: -0.14981091, b: -0.028326571, a: 0}
    - _HSLVariation: {r: -0.06099685, g: -0.24981087, b: -0.07790327, a: 0}
    - _OcclusionRemap: {r: 0, g: 1, b: 0, a: 0}
    - _ScaleFade: {r: 500, g: 20, b: 0, a: 0}
    - _ThicknessRemap: {r: 0, g: 1, b: 0, a: 0}
    - _Tint: {r: 1, g: 1, b: 1, a: 1}
    - _TintVariation: {r: 1, g: 1, b: 1, a: 1}
    - _TranslucencyColor: {r: 1, g: 1, b: 1, a: 1}
    - _TrunkBendFactor: {r: 1, g: 0, b: 0, a: 0}
    - _WindFade: {r: 50, g: 20, b: 0, a: 0}
  m_BuildTextureStacks: []
