%YAML 1.1
%TAG !u! tag:unity3d.com,2011:
--- !u!1 &3134890457490776731
GameObject:
  m_ObjectHideFlags: 0
  m_CorrespondingSourceObject: {fileID: 0}
  m_PrefabInstance: {fileID: 0}
  m_PrefabAsset: {fileID: 0}
  serializedVersion: 6
  m_Component:
  - component: {fileID: 2923719361224378579}
  m_Layer: 0
  m_Name: Models
  m_TagString: Untagged
  m_Icon: {fileID: 0}
  m_NavMeshLayer: 0
  m_StaticEditorFlags: 0
  m_IsActive: 1
--- !u!4 &2923719361224378579
Transform:
  m_ObjectHideFlags: 0
  m_CorrespondingSourceObject: {fileID: 0}
  m_PrefabInstance: {fileID: 0}
  m_PrefabAsset: {fileID: 0}
  m_GameObject: {fileID: 3134890457490776731}
  m_LocalRotation: {x: -0, y: -0, z: -0, w: 1}
  m_LocalPosition: {x: 0, y: 0, z: 0}
  m_LocalScale: {x: 1, y: 1, z: 1}
  m_ConstrainProportionsScale: 0
  m_Children:
  - {fileID: 5844866361938136695}
  - {fileID: 5844866361994526883}
  - {fileID: 5844866363346004617}
  - {fileID: 5844866363299759140}
  - {fileID: 5844866362672205794}
  - {fileID: 5844866362345154738}
  - {fileID: 5844866362759046797}
  - {fileID: 5844866362029323875}
  m_Father: {fileID: 6239626784148195827}
  m_RootOrder: 0
  m_LocalEulerAnglesHint: {x: 0, y: 0, z: 0}
--- !u!1 &6239626782838370958
GameObject:
  m_ObjectHideFlags: 0
  m_CorrespondingSourceObject: {fileID: 0}
  m_PrefabInstance: {fileID: 0}
  m_PrefabAsset: {fileID: 0}
  serializedVersion: 6
  m_Component:
  - component: {fileID: 6239626782838370959}
  - component: {fileID: 6239626782838370956}
  m_Layer: 0
  m_Name: Picture
  m_TagString: Untagged
  m_Icon: {fileID: 0}
  m_NavMeshLayer: 0
  m_StaticEditorFlags: 0
  m_IsActive: 1
--- !u!4 &6239626782838370959
Transform:
  m_ObjectHideFlags: 0
  m_CorrespondingSourceObject: {fileID: 0}
  m_PrefabInstance: {fileID: 0}
  m_PrefabAsset: {fileID: 0}
  m_GameObject: {fileID: 6239626782838370958}
  m_LocalRotation: {x: -0.000000017229466, y: 0.000000029802319, z: 0.013407512, w: 0.9999101}
  m_LocalPosition: {x: -2.4280133, y: -0.7020129, z: -0.9494007}
  m_LocalScale: {x: 0.04893288, y: 0.048932873, z: 0.097865745}
  m_ConstrainProportionsScale: 0
  m_Children:
  - {fileID: 6239626784492357513}
  - {fileID: 6239626783933767460}
  - {fileID: 6239626784567327741}
  - {fileID: 6239626783463402931}
  m_Father: {fileID: 6239626784148195827}
  m_RootOrder: 1
  m_LocalEulerAnglesHint: {x: 0, y: 0, z: 1.536}
--- !u!212 &6239626782838370956
SpriteRenderer:
  m_ObjectHideFlags: 0
  m_CorrespondingSourceObject: {fileID: 0}
  m_PrefabInstance: {fileID: 0}
  m_PrefabAsset: {fileID: 0}
  m_GameObject: {fileID: 6239626782838370958}
  m_Enabled: 1
  m_CastShadows: 0
  m_ReceiveShadows: 0
  m_DynamicOccludee: 1
  m_StaticShadowCaster: 0
  m_MotionVectors: 1
  m_LightProbeUsage: 1
  m_ReflectionProbeUsage: 1
  m_RayTracingMode: 0
  m_RayTraceProcedural: 0
  m_RenderingLayerMask: 1
  m_RendererPriority: 0
  m_Materials:
  - {fileID: 2100000, guid: a97c105638bdf8b4a8650670310a4cd3, type: 2}
  m_StaticBatchInfo:
    firstSubMesh: 0
    subMeshCount: 0
  m_StaticBatchRoot: {fileID: 0}
  m_ProbeAnchor: {fileID: 0}
  m_LightProbeVolumeOverride: {fileID: 0}
  m_ScaleInLightmap: 1
  m_ReceiveGI: 1
  m_PreserveUVs: 0
  m_IgnoreNormalsForChartDetection: 0
  m_ImportantGI: 0
  m_StitchLightmapSeams: 1
  m_SelectedEditorRenderState: 0
  m_MinimumChartSize: 4
  m_AutoUVMaxDistance: 0.5
  m_AutoUVMaxAngle: 89
  m_LightmapParameters: {fileID: 0}
  m_SortingLayerID: 0
  m_SortingLayer: 0
  m_SortingOrder: 0
  m_Sprite: {fileID: 21300000, guid: 0a207f7e6bd8b0245af42875a673931f, type: 3}
  m_Color: {r: 1, g: 1, b: 1, a: 1}
  m_FlipX: 0
  m_FlipY: 0
  m_DrawMode: 0
  m_Size: {x: 4.4, y: 4.1}
  m_AdaptiveModeThreshold: 0.5
  m_SpriteTileMode: 0
  m_WasSpriteAssigned: 1
  m_MaskInteraction: 0
  m_SpriteSortPoint: 0
--- !u!1 &6239626782965684748
GameObject:
  m_ObjectHideFlags: 0
  m_CorrespondingSourceObject: {fileID: 0}
  m_PrefabInstance: {fileID: 0}
  m_PrefabAsset: {fileID: 0}
  serializedVersion: 6
  m_Component:
  - component: {fileID: 6239626782965684749}
  - component: {fileID: 6239626782965684739}
  - component: {fileID: 6239626782965684738}
  m_Layer: 0
  m_Name: Description
  m_TagString: Untagged
  m_Icon: {fileID: 0}
  m_NavMeshLayer: 0
  m_StaticEditorFlags: 0
  m_IsActive: 1
--- !u!4 &6239626782965684749
Transform:
  m_ObjectHideFlags: 0
  m_CorrespondingSourceObject: {fileID: 0}
  m_PrefabInstance: {fileID: 0}
  m_PrefabAsset: {fileID: 0}
  m_GameObject: {fileID: 6239626782965684748}
  m_LocalRotation: {x: -0, y: -0, z: -0, w: 1}
  m_LocalPosition: {x: -2.164, y: -0.9756265, z: -0.9470006}
  m_LocalScale: {x: 0.0049248124, y: 0.0049248124, z: 0.0049248124}
  m_ConstrainProportionsScale: 0
  m_Children: []
  m_Father: {fileID: 6239626784148195827}
  m_RootOrder: 3
  m_LocalEulerAnglesHint: {x: 0, y: 0, z: 0}
--- !u!23 &6239626782965684739
MeshRenderer:
  m_ObjectHideFlags: 0
  m_CorrespondingSourceObject: {fileID: 0}
  m_PrefabInstance: {fileID: 0}
  m_PrefabAsset: {fileID: 0}
  m_GameObject: {fileID: 6239626782965684748}
  m_Enabled: 1
  m_CastShadows: 1
  m_ReceiveShadows: 1
  m_DynamicOccludee: 1
  m_StaticShadowCaster: 0
  m_MotionVectors: 1
  m_LightProbeUsage: 1
  m_ReflectionProbeUsage: 1
  m_RayTracingMode: 2
  m_RayTraceProcedural: 0
  m_RenderingLayerMask: 1
  m_RendererPriority: 0
  m_Materials:
  - {fileID: 0}
  m_StaticBatchInfo:
    firstSubMesh: 0
    subMeshCount: 0
  m_StaticBatchRoot: {fileID: 0}
  m_ProbeAnchor: {fileID: 0}
  m_LightProbeVolumeOverride: {fileID: 0}
  m_ScaleInLightmap: 1
  m_ReceiveGI: 1
  m_PreserveUVs: 0
  m_IgnoreNormalsForChartDetection: 0
  m_ImportantGI: 0
  m_StitchLightmapSeams: 1
  m_SelectedEditorRenderState: 3
  m_MinimumChartSize: 4
  m_AutoUVMaxDistance: 0.5
  m_AutoUVMaxAngle: 89
  m_LightmapParameters: {fileID: 0}
  m_SortingLayerID: 0
  m_SortingLayer: 0
  m_SortingOrder: 0
  m_AdditionalVertexStreams: {fileID: 0}
--- !u!102 &6239626782965684738
TextMesh:
  serializedVersion: 3
  m_ObjectHideFlags: 0
  m_CorrespondingSourceObject: {fileID: 0}
  m_PrefabInstance: {fileID: 0}
  m_PrefabAsset: {fileID: 0}
  m_GameObject: {fileID: 6239626782965684748}
  m_Text: "Description: Lorem Ipsum is simply dummy text of the print\nand typesetting
    industry. Lorem Ipsum has been the indus-\ntry's standard dummy text ever since
    the 1500s, when an \nunknown printer took a galley of type and scrambled it to\nmake
    a type specimen book. It has survived not\nonly five centuries, but also the
    leap into electric."
  m_OffsetZ: 0
  m_CharacterSize: 0.85
  m_LineSpacing: 1.15
  m_Anchor: 4
  m_Alignment: 0
  m_TabSize: 3
  m_FontSize: 60
  m_FontStyle: 0
  m_RichText: 1
  m_Font: {fileID: 12800000, guid: 391999fef87c33e479e53647fd3f7f26, type: 3}
  m_Color:
    serializedVersion: 2
    rgba: 4294967295
--- !u!1 &6239626783463402930
GameObject:
  m_ObjectHideFlags: 0
  m_CorrespondingSourceObject: {fileID: 0}
  m_PrefabInstance: {fileID: 0}
  m_PrefabAsset: {fileID: 0}
  serializedVersion: 6
  m_Component:
  - component: {fileID: 6239626783463402931}
  - component: {fileID: 6239626783463402929}
  - component: {fileID: 6239626783463402928}
  m_Layer: 0
  m_Name: Detail
  m_TagString: Untagged
  m_Icon: {fileID: 0}
  m_NavMeshLayer: 0
  m_StaticEditorFlags: 0
  m_IsActive: 1
--- !u!4 &6239626783463402931
Transform:
  m_ObjectHideFlags: 0
  m_CorrespondingSourceObject: {fileID: 0}
  m_PrefabInstance: {fileID: 0}
  m_PrefabAsset: {fileID: 0}
  m_GameObject: {fileID: 6239626783463402930}
  m_LocalRotation: {x: -0.7070833, y: 0.0056446963, z: -0.005646642, w: 0.7070852}
  m_LocalPosition: {x: -1.87, y: -2.18, z: 0.03}
  m_LocalScale: {x: 0.114567965, y: -0.050888456, z: 0.114568}
  m_ConstrainProportionsScale: 0
  m_Children: []
  m_Father: {fileID: 6239626782838370959}
  m_RootOrder: 3
  m_LocalEulerAnglesHint: {x: -90.00001, y: 0, z: 0}
--- !u!33 &6239626783463402929
MeshFilter:
  m_ObjectHideFlags: 0
  m_CorrespondingSourceObject: {fileID: 0}
  m_PrefabInstance: {fileID: 0}
  m_PrefabAsset: {fileID: 0}
  m_GameObject: {fileID: 6239626783463402930}
  m_Mesh: {fileID: 10206, guid: 0000000000000000e000000000000000, type: 0}
--- !u!23 &6239626783463402928
MeshRenderer:
  m_ObjectHideFlags: 0
  m_CorrespondingSourceObject: {fileID: 0}
  m_PrefabInstance: {fileID: 0}
  m_PrefabAsset: {fileID: 0}
  m_GameObject: {fileID: 6239626783463402930}
  m_Enabled: 1
  m_CastShadows: 1
  m_ReceiveShadows: 1
  m_DynamicOccludee: 1
  m_StaticShadowCaster: 0
  m_MotionVectors: 1
  m_LightProbeUsage: 1
  m_ReflectionProbeUsage: 1
  m_RayTracingMode: 2
  m_RayTraceProcedural: 0
  m_RenderingLayerMask: 1
  m_RendererPriority: 0
  m_Materials:
  - {fileID: 2100000, guid: 963c1ba1247ef1d4989e88499950a42e, type: 2}
  m_StaticBatchInfo:
    firstSubMesh: 0
    subMeshCount: 0
  m_StaticBatchRoot: {fileID: 0}
  m_ProbeAnchor: {fileID: 0}
  m_LightProbeVolumeOverride: {fileID: 0}
  m_ScaleInLightmap: 1
  m_ReceiveGI: 1
  m_PreserveUVs: 0
  m_IgnoreNormalsForChartDetection: 0
  m_ImportantGI: 0
  m_StitchLightmapSeams: 1
  m_SelectedEditorRenderState: 3
  m_MinimumChartSize: 4
  m_AutoUVMaxDistance: 0.5
  m_AutoUVMaxAngle: 89
  m_LightmapParameters: {fileID: 0}
  m_SortingLayerID: 0
  m_SortingLayer: 0
  m_SortingOrder: 0
  m_AdditionalVertexStreams: {fileID: 0}
--- !u!1 &6239626783933767463
GameObject:
  m_ObjectHideFlags: 0
  m_CorrespondingSourceObject: {fileID: 0}
  m_PrefabInstance: {fileID: 0}
  m_PrefabAsset: {fileID: 0}
  serializedVersion: 6
  m_Component:
  - component: {fileID: 6239626783933767460}
  - component: {fileID: 6239626783933767482}
  - component: {fileID: 6239626783933767461}
  m_Layer: 0
  m_Name: Detail
  m_TagString: Untagged
  m_Icon: {fileID: 0}
  m_NavMeshLayer: 0
  m_StaticEditorFlags: 0
  m_IsActive: 1
--- !u!4 &6239626783933767460
Transform:
  m_ObjectHideFlags: 0
  m_CorrespondingSourceObject: {fileID: 0}
  m_PrefabInstance: {fileID: 0}
  m_PrefabAsset: {fileID: 0}
  m_GameObject: {fileID: 6239626783933767463}
  m_LocalRotation: {x: -0.7070833, y: 0.0056446963, z: -0.005646642, w: 0.7070852}
  m_LocalPosition: {x: -1.897, y: 2.289, z: 0.03}
  m_LocalScale: {x: 0.114567965, y: -0.050888456, z: 0.114568}
  m_ConstrainProportionsScale: 0
  m_Children: []
  m_Father: {fileID: 6239626782838370959}
  m_RootOrder: 1
  m_LocalEulerAnglesHint: {x: -90.00001, y: 0, z: 0}
--- !u!33 &6239626783933767482
MeshFilter:
  m_ObjectHideFlags: 0
  m_CorrespondingSourceObject: {fileID: 0}
  m_PrefabInstance: {fileID: 0}
  m_PrefabAsset: {fileID: 0}
  m_GameObject: {fileID: 6239626783933767463}
  m_Mesh: {fileID: 10206, guid: 0000000000000000e000000000000000, type: 0}
--- !u!23 &6239626783933767461
MeshRenderer:
  m_ObjectHideFlags: 0
  m_CorrespondingSourceObject: {fileID: 0}
  m_PrefabInstance: {fileID: 0}
  m_PrefabAsset: {fileID: 0}
  m_GameObject: {fileID: 6239626783933767463}
  m_Enabled: 1
  m_CastShadows: 1
  m_ReceiveShadows: 1
  m_DynamicOccludee: 1
  m_StaticShadowCaster: 0
  m_MotionVectors: 1
  m_LightProbeUsage: 1
  m_ReflectionProbeUsage: 1
  m_RayTracingMode: 2
  m_RayTraceProcedural: 0
  m_RenderingLayerMask: 1
  m_RendererPriority: 0
  m_Materials:
  - {fileID: 2100000, guid: 963c1ba1247ef1d4989e88499950a42e, type: 2}
  m_StaticBatchInfo:
    firstSubMesh: 0
    subMeshCount: 0
  m_StaticBatchRoot: {fileID: 0}
  m_ProbeAnchor: {fileID: 0}
  m_LightProbeVolumeOverride: {fileID: 0}
  m_ScaleInLightmap: 1
  m_ReceiveGI: 1
  m_PreserveUVs: 0
  m_IgnoreNormalsForChartDetection: 0
  m_ImportantGI: 0
  m_StitchLightmapSeams: 1
  m_SelectedEditorRenderState: 3
  m_MinimumChartSize: 4
  m_AutoUVMaxDistance: 0.5
  m_AutoUVMaxAngle: 89
  m_LightmapParameters: {fileID: 0}
  m_SortingLayerID: 0
  m_SortingLayer: 0
  m_SortingOrder: 0
  m_AdditionalVertexStreams: {fileID: 0}
--- !u!1 &6239626784148195826
GameObject:
  m_ObjectHideFlags: 0
  m_CorrespondingSourceObject: {fileID: 0}
  m_PrefabInstance: {fileID: 0}
  m_PrefabAsset: {fileID: 0}
  serializedVersion: 6
  m_Component:
  - component: {fileID: 6239626784148195827}
  m_Layer: 0
  m_Name: '#InfoBoard'
  m_TagString: Untagged
  m_Icon: {fileID: 0}
  m_NavMeshLayer: 0
  m_StaticEditorFlags: 0
  m_IsActive: 1
--- !u!4 &6239626784148195827
Transform:
  m_ObjectHideFlags: 0
  m_CorrespondingSourceObject: {fileID: 0}
  m_PrefabInstance: {fileID: 0}
  m_PrefabAsset: {fileID: 0}
  m_GameObject: {fileID: 6239626784148195826}
  m_LocalRotation: {x: 0, y: 0, z: 0, w: 1}
  m_LocalPosition: {x: 0, y: 0, z: 0}
  m_LocalScale: {x: 1, y: 1, z: 1}
  m_ConstrainProportionsScale: 0
  m_Children:
  - {fileID: 2923719361224378579}
  - {fileID: 6239626782838370959}
  - {fileID: 6239626784706621237}
  - {fileID: 6239626782965684749}
  m_Father: {fileID: 0}
  m_RootOrder: 0
  m_LocalEulerAnglesHint: {x: 0, y: 0, z: 0}
--- !u!1 &6239626784492357512
GameObject:
  m_ObjectHideFlags: 0
  m_CorrespondingSourceObject: {fileID: 0}
  m_PrefabInstance: {fileID: 0}
  m_PrefabAsset: {fileID: 0}
  serializedVersion: 6
  m_Component:
  - component: {fileID: 6239626784492357513}
  - component: {fileID: 6239626784492357519}
  - component: {fileID: 6239626784492357518}
  m_Layer: 0
  m_Name: Detail
  m_TagString: Untagged
  m_Icon: {fileID: 0}
  m_NavMeshLayer: 0
  m_StaticEditorFlags: 0
  m_IsActive: 1
--- !u!4 &6239626784492357513
Transform:
  m_ObjectHideFlags: 0
  m_CorrespondingSourceObject: {fileID: 0}
  m_PrefabInstance: {fileID: 0}
  m_PrefabAsset: {fileID: 0}
  m_GameObject: {fileID: 6239626784492357512}
  m_LocalRotation: {x: -0.7070833, y: 0.0056446963, z: -0.005646642, w: 0.7070852}
  m_LocalPosition: {x: 1.793, y: 2.282, z: 0.03}
  m_LocalScale: {x: 0.114567965, y: -0.050888456, z: 0.114568}
  m_ConstrainProportionsScale: 0
  m_Children: []
  m_Father: {fileID: 6239626782838370959}
  m_RootOrder: 0
  m_LocalEulerAnglesHint: {x: -90.00001, y: 0, z: 0}
--- !u!33 &6239626784492357519
MeshFilter:
  m_ObjectHideFlags: 0
  m_CorrespondingSourceObject: {fileID: 0}
  m_PrefabInstance: {fileID: 0}
  m_PrefabAsset: {fileID: 0}
  m_GameObject: {fileID: 6239626784492357512}
  m_Mesh: {fileID: 10206, guid: 0000000000000000e000000000000000, type: 0}
--- !u!23 &6239626784492357518
MeshRenderer:
  m_ObjectHideFlags: 0
  m_CorrespondingSourceObject: {fileID: 0}
  m_PrefabInstance: {fileID: 0}
  m_PrefabAsset: {fileID: 0}
  m_GameObject: {fileID: 6239626784492357512}
  m_Enabled: 1
  m_CastShadows: 1
  m_ReceiveShadows: 1
  m_DynamicOccludee: 1
  m_StaticShadowCaster: 0
  m_MotionVectors: 1
  m_LightProbeUsage: 1
  m_ReflectionProbeUsage: 1
  m_RayTracingMode: 2
  m_RayTraceProcedural: 0
  m_RenderingLayerMask: 1
  m_RendererPriority: 0
  m_Materials:
  - {fileID: 2100000, guid: 963c1ba1247ef1d4989e88499950a42e, type: 2}
  m_StaticBatchInfo:
    firstSubMesh: 0
    subMeshCount: 0
  m_StaticBatchRoot: {fileID: 0}
  m_ProbeAnchor: {fileID: 0}
  m_LightProbeVolumeOverride: {fileID: 0}
  m_ScaleInLightmap: 1
  m_ReceiveGI: 1
  m_PreserveUVs: 0
  m_IgnoreNormalsForChartDetection: 0
  m_ImportantGI: 0
  m_StitchLightmapSeams: 1
  m_SelectedEditorRenderState: 3
  m_MinimumChartSize: 4
  m_AutoUVMaxDistance: 0.5
  m_AutoUVMaxAngle: 89
  m_LightmapParameters: {fileID: 0}
  m_SortingLayerID: 0
  m_SortingLayer: 0
  m_SortingOrder: 0
  m_AdditionalVertexStreams: {fileID: 0}
--- !u!1 &6239626784567327740
GameObject:
  m_ObjectHideFlags: 0
  m_CorrespondingSourceObject: {fileID: 0}
  m_PrefabInstance: {fileID: 0}
  m_PrefabAsset: {fileID: 0}
  serializedVersion: 6
  m_Component:
  - component: {fileID: 6239626784567327741}
  - component: {fileID: 6239626784567327731}
  - component: {fileID: 6239626784567327730}
  m_Layer: 0
  m_Name: Detail
  m_TagString: Untagged
  m_Icon: {fileID: 0}
  m_NavMeshLayer: 0
  m_StaticEditorFlags: 0
  m_IsActive: 1
--- !u!4 &6239626784567327741
Transform:
  m_ObjectHideFlags: 0
  m_CorrespondingSourceObject: {fileID: 0}
  m_PrefabInstance: {fileID: 0}
  m_PrefabAsset: {fileID: 0}
  m_GameObject: {fileID: 6239626784567327740}
  m_LocalRotation: {x: -0.7070833, y: 0.0056446963, z: -0.005646642, w: 0.7070852}
  m_LocalPosition: {x: 1.82, y: -2.19, z: 0.03}
  m_LocalScale: {x: 0.114567965, y: -0.050888456, z: 0.114568}
  m_ConstrainProportionsScale: 0
  m_Children: []
  m_Father: {fileID: 6239626782838370959}
  m_RootOrder: 2
  m_LocalEulerAnglesHint: {x: -90.00001, y: 0, z: 0}
--- !u!33 &6239626784567327731
MeshFilter:
  m_ObjectHideFlags: 0
  m_CorrespondingSourceObject: {fileID: 0}
  m_PrefabInstance: {fileID: 0}
  m_PrefabAsset: {fileID: 0}
  m_GameObject: {fileID: 6239626784567327740}
  m_Mesh: {fileID: 10206, guid: 0000000000000000e000000000000000, type: 0}
--- !u!23 &6239626784567327730
MeshRenderer:
  m_ObjectHideFlags: 0
  m_CorrespondingSourceObject: {fileID: 0}
  m_PrefabInstance: {fileID: 0}
  m_PrefabAsset: {fileID: 0}
  m_GameObject: {fileID: 6239626784567327740}
  m_Enabled: 1
  m_CastShadows: 1
  m_ReceiveShadows: 1
  m_DynamicOccludee: 1
  m_StaticShadowCaster: 0
  m_MotionVectors: 1
  m_LightProbeUsage: 1
  m_ReflectionProbeUsage: 1
  m_RayTracingMode: 2
  m_RayTraceProcedural: 0
  m_RenderingLayerMask: 1
  m_RendererPriority: 0
  m_Materials:
  - {fileID: 2100000, guid: 963c1ba1247ef1d4989e88499950a42e, type: 2}
  m_StaticBatchInfo:
    firstSubMesh: 0
    subMeshCount: 0
  m_StaticBatchRoot: {fileID: 0}
  m_ProbeAnchor: {fileID: 0}
  m_LightProbeVolumeOverride: {fileID: 0}
  m_ScaleInLightmap: 1
  m_ReceiveGI: 1
  m_PreserveUVs: 0
  m_IgnoreNormalsForChartDetection: 0
  m_ImportantGI: 0
  m_StitchLightmapSeams: 1
  m_SelectedEditorRenderState: 3
  m_MinimumChartSize: 4
  m_AutoUVMaxDistance: 0.5
  m_AutoUVMaxAngle: 89
  m_LightmapParameters: {fileID: 0}
  m_SortingLayerID: 0
  m_SortingLayer: 0
  m_SortingOrder: 0
  m_AdditionalVertexStreams: {fileID: 0}
--- !u!1 &6239626784706621236
GameObject:
  m_ObjectHideFlags: 0
  m_CorrespondingSourceObject: {fileID: 0}
  m_PrefabInstance: {fileID: 0}
  m_PrefabAsset: {fileID: 0}
  serializedVersion: 6
  m_Component:
  - component: {fileID: 6239626784706621237}
  - component: {fileID: 6239626784706621259}
  - component: {fileID: 6239626784706621258}
  m_Layer: 0
  m_Name: Title
  m_TagString: Untagged
  m_Icon: {fileID: 0}
  m_NavMeshLayer: 0
  m_StaticEditorFlags: 0
  m_IsActive: 1
--- !u!4 &6239626784706621237
Transform:
  m_ObjectHideFlags: 0
  m_CorrespondingSourceObject: {fileID: 0}
  m_PrefabInstance: {fileID: 0}
  m_PrefabAsset: {fileID: 0}
  m_GameObject: {fileID: 6239626784706621236}
  m_LocalRotation: {x: -0, y: -0, z: -0, w: 1}
  m_LocalPosition: {x: -2.0319936, y: -0.6954126, z: -0.945}
  m_LocalScale: {x: 0.008503354, y: 0.008503354, z: 0.008503354}
  m_ConstrainProportionsScale: 0
  m_Children: []
  m_Father: {fileID: 6239626784148195827}
  m_RootOrder: 2
  m_LocalEulerAnglesHint: {x: 0, y: 0, z: 0}
--- !u!23 &6239626784706621259
MeshRenderer:
  m_ObjectHideFlags: 0
  m_CorrespondingSourceObject: {fileID: 0}
  m_PrefabInstance: {fileID: 0}
  m_PrefabAsset: {fileID: 0}
  m_GameObject: {fileID: 6239626784706621236}
  m_Enabled: 1
  m_CastShadows: 1
  m_ReceiveShadows: 1
  m_DynamicOccludee: 1
  m_StaticShadowCaster: 0
  m_MotionVectors: 1
  m_LightProbeUsage: 1
  m_ReflectionProbeUsage: 1
  m_RayTracingMode: 2
  m_RayTraceProcedural: 0
  m_RenderingLayerMask: 1
  m_RendererPriority: 0
  m_Materials:
  - {fileID: 0}
  m_StaticBatchInfo:
    firstSubMesh: 0
    subMeshCount: 0
  m_StaticBatchRoot: {fileID: 0}
  m_ProbeAnchor: {fileID: 0}
  m_LightProbeVolumeOverride: {fileID: 0}
  m_ScaleInLightmap: 1
  m_ReceiveGI: 1
  m_PreserveUVs: 0
  m_IgnoreNormalsForChartDetection: 0
  m_ImportantGI: 0
  m_StitchLightmapSeams: 1
  m_SelectedEditorRenderState: 3
  m_MinimumChartSize: 4
  m_AutoUVMaxDistance: 0.5
  m_AutoUVMaxAngle: 89
  m_LightmapParameters: {fileID: 0}
  m_SortingLayerID: 0
  m_SortingLayer: 0
  m_SortingOrder: 0
  m_AdditionalVertexStreams: {fileID: 0}
--- !u!102 &6239626784706621258
TextMesh:
  serializedVersion: 3
  m_ObjectHideFlags: 0
  m_CorrespondingSourceObject: {fileID: 0}
  m_PrefabInstance: {fileID: 0}
  m_PrefabAsset: {fileID: 0}
  m_GameObject: {fileID: 6239626784706621236}
  m_Text: '"Main Title"

    (SubTitle)

    [Extra]'
  m_OffsetZ: 0
  m_CharacterSize: 1
  m_LineSpacing: 1
  m_Anchor: 4
  m_Alignment: 0
  m_TabSize: 3
  m_FontSize: 60
  m_FontStyle: 1
  m_RichText: 1
  m_Font: {fileID: 12800000, guid: 391999fef87c33e479e53647fd3f7f26, type: 3}
  m_Color:
    serializedVersion: 2
    rgba: 4294967295
--- !u!1001 &6239626783011065186
PrefabInstance:
  m_ObjectHideFlags: 0
  serializedVersion: 2
  m_Modification:
    m_TransformParent: {fileID: 2923719361224378579}
    m_Modifications:
    - target: {fileID: -8679921383154817045, guid: 2012ae052de62b343b588c9f642aabfa,
        type: 3}
      propertyPath: m_RootOrder
      value: 2
      objectReference: {fileID: 0}
    - target: {fileID: -8679921383154817045, guid: 2012ae052de62b343b588c9f642aabfa,
        type: 3}
      propertyPath: m_LocalScale.x
      value: -0.84205455
      objectReference: {fileID: 0}
    - target: {fileID: -8679921383154817045, guid: 2012ae052de62b343b588c9f642aabfa,
        type: 3}
      propertyPath: m_LocalScale.y
      value: 0.73509675
      objectReference: {fileID: 0}
    - target: {fileID: -8679921383154817045, guid: 2012ae052de62b343b588c9f642aabfa,
        type: 3}
      propertyPath: m_LocalScale.z
      value: 0.84205455
      objectReference: {fileID: 0}
    - target: {fileID: -8679921383154817045, guid: 2012ae052de62b343b588c9f642aabfa,
        type: 3}
      propertyPath: m_LocalPosition.x
      value: -2.1628
      objectReference: {fileID: 0}
    - target: {fileID: -8679921383154817045, guid: 2012ae052de62b343b588c9f642aabfa,
        type: 3}
      propertyPath: m_LocalPosition.y
      value: -1.191
      objectReference: {fileID: 0}
    - target: {fileID: -8679921383154817045, guid: 2012ae052de62b343b588c9f642aabfa,
        type: 3}
      propertyPath: m_LocalPosition.z
      value: -0.91998
      objectReference: {fileID: 0}
    - target: {fileID: -8679921383154817045, guid: 2012ae052de62b343b588c9f642aabfa,
        type: 3}
      propertyPath: m_LocalRotation.w
      value: 0.9999078
      objectReference: {fileID: 0}
    - target: {fileID: -8679921383154817045, guid: 2012ae052de62b343b588c9f642aabfa,
        type: 3}
      propertyPath: m_LocalRotation.x
      value: 0.010057253
      objectReference: {fileID: 0}
    - target: {fileID: -8679921383154817045, guid: 2012ae052de62b343b588c9f642aabfa,
        type: 3}
      propertyPath: m_LocalRotation.y
      value: -0.0011395056
      objectReference: {fileID: 0}
    - target: {fileID: -8679921383154817045, guid: 2012ae052de62b343b588c9f642aabfa,
        type: 3}
      propertyPath: m_LocalRotation.z
      value: -0.00906273
      objectReference: {fileID: 0}
    - target: {fileID: -8679921383154817045, guid: 2012ae052de62b343b588c9f642aabfa,
        type: 3}
      propertyPath: m_LocalEulerAnglesHint.x
      value: 1.151
      objectReference: {fileID: 0}
    - target: {fileID: -8679921383154817045, guid: 2012ae052de62b343b588c9f642aabfa,
        type: 3}
      propertyPath: m_LocalEulerAnglesHint.y
      value: -0.141
      objectReference: {fileID: 0}
    - target: {fileID: -8679921383154817045, guid: 2012ae052de62b343b588c9f642aabfa,
        type: 3}
      propertyPath: m_LocalEulerAnglesHint.z
      value: -1.0400001
      objectReference: {fileID: 0}
    - target: {fileID: -7511558181221131132, guid: 2012ae052de62b343b588c9f642aabfa,
        type: 3}
      propertyPath: m_Materials.Array.data[0]
      value: 
      objectReference: {fileID: 2100000, guid: ac11a13408785b045b5e265c5e20ee49, type: 2}
    - target: {fileID: 919132149155446097, guid: 2012ae052de62b343b588c9f642aabfa,
        type: 3}
      propertyPath: m_Name
      value: Wood-Plank-A-3
      objectReference: {fileID: 0}
    m_RemovedComponents: []
  m_SourcePrefab: {fileID: 100100000, guid: 2012ae052de62b343b588c9f642aabfa, type: 3}
--- !u!4 &5844866363346004617 stripped
Transform:
  m_CorrespondingSourceObject: {fileID: -8679921383154817045, guid: 2012ae052de62b343b588c9f642aabfa,
    type: 3}
  m_PrefabInstance: {fileID: 6239626783011065186}
  m_PrefabAsset: {fileID: 0}
--- !u!1001 &6239626783048721359
PrefabInstance:
  m_ObjectHideFlags: 0
  serializedVersion: 2
  m_Modification:
    m_TransformParent: {fileID: 2923719361224378579}
    m_Modifications:
    - target: {fileID: -8679921383154817045, guid: 2012ae052de62b343b588c9f642aabfa,
        type: 3}
      propertyPath: m_RootOrder
      value: 3
      objectReference: {fileID: 0}
    - target: {fileID: -8679921383154817045, guid: 2012ae052de62b343b588c9f642aabfa,
        type: 3}
      propertyPath: m_LocalScale.x
      value: -0.65531987
      objectReference: {fileID: 0}
    - target: {fileID: -8679921383154817045, guid: 2012ae052de62b343b588c9f642aabfa,
        type: 3}
      propertyPath: m_LocalScale.y
      value: 0.610338
      objectReference: {fileID: 0}
    - target: {fileID: -8679921383154817045, guid: 2012ae052de62b343b588c9f642aabfa,
        type: 3}
      propertyPath: m_LocalScale.z
      value: 0.6103381
      objectReference: {fileID: 0}
    - target: {fileID: -8679921383154817045, guid: 2012ae052de62b343b588c9f642aabfa,
        type: 3}
      propertyPath: m_LocalPosition.x
      value: -1.704
      objectReference: {fileID: 0}
    - target: {fileID: -8679921383154817045, guid: 2012ae052de62b343b588c9f642aabfa,
        type: 3}
      propertyPath: m_LocalPosition.y
      value: -0.85979
      objectReference: {fileID: 0}
    - target: {fileID: -8679921383154817045, guid: 2012ae052de62b343b588c9f642aabfa,
        type: 3}
      propertyPath: m_LocalPosition.z
      value: -0.95153
      objectReference: {fileID: 0}
    - target: {fileID: -8679921383154817045, guid: 2012ae052de62b343b588c9f642aabfa,
        type: 3}
      propertyPath: m_LocalRotation.w
      value: -0.012541153
      objectReference: {fileID: 0}
    - target: {fileID: -8679921383154817045, guid: 2012ae052de62b343b588c9f642aabfa,
        type: 3}
      propertyPath: m_LocalRotation.x
      value: 0.69750124
      objectReference: {fileID: 0}
    - target: {fileID: -8679921383154817045, guid: 2012ae052de62b343b588c9f642aabfa,
        type: 3}
      propertyPath: m_LocalRotation.y
      value: 0.7163637
      objectReference: {fileID: 0}
    - target: {fileID: -8679921383154817045, guid: 2012ae052de62b343b588c9f642aabfa,
        type: 3}
      propertyPath: m_LocalRotation.z
      value: -0.012563699
      objectReference: {fileID: 0}
    - target: {fileID: -8679921383154817045, guid: 2012ae052de62b343b588c9f642aabfa,
        type: 3}
      propertyPath: m_LocalEulerAnglesHint.x
      value: 0.029000001
      objectReference: {fileID: 0}
    - target: {fileID: -8679921383154817045, guid: 2012ae052de62b343b588c9f642aabfa,
        type: 3}
      propertyPath: m_LocalEulerAnglesHint.y
      value: 182.034
      objectReference: {fileID: 0}
    - target: {fileID: -8679921383154817045, guid: 2012ae052de62b343b588c9f642aabfa,
        type: 3}
      propertyPath: m_LocalEulerAnglesHint.z
      value: 88.47201
      objectReference: {fileID: 0}
    - target: {fileID: -7511558181221131132, guid: 2012ae052de62b343b588c9f642aabfa,
        type: 3}
      propertyPath: m_Materials.Array.data[0]
      value: 
      objectReference: {fileID: 2100000, guid: 130f07fa25ee43746881f0c850a3e77e, type: 2}
    - target: {fileID: 919132149155446097, guid: 2012ae052de62b343b588c9f642aabfa,
        type: 3}
      propertyPath: m_Name
      value: Wood-Plank-A-4
      objectReference: {fileID: 0}
    m_RemovedComponents: []
  m_SourcePrefab: {fileID: 100100000, guid: 2012ae052de62b343b588c9f642aabfa, type: 3}
--- !u!4 &5844866363299759140 stripped
Transform:
  m_CorrespondingSourceObject: {fileID: -8679921383154817045, guid: 2012ae052de62b343b588c9f642aabfa,
    type: 3}
  m_PrefabInstance: {fileID: 6239626783048721359}
  m_PrefabAsset: {fileID: 0}
--- !u!1001 &6239626783631376742
PrefabInstance:
  m_ObjectHideFlags: 0
  serializedVersion: 2
  m_Modification:
    m_TransformParent: {fileID: 2923719361224378579}
    m_Modifications:
    - target: {fileID: -8679921383154817045, guid: 2012ae052de62b343b588c9f642aabfa,
        type: 3}
      propertyPath: m_RootOrder
      value: 6
      objectReference: {fileID: 0}
    - target: {fileID: -8679921383154817045, guid: 2012ae052de62b343b588c9f642aabfa,
        type: 3}
      propertyPath: m_LocalScale.x
      value: 0.72895277
      objectReference: {fileID: 0}
    - target: {fileID: -8679921383154817045, guid: 2012ae052de62b343b588c9f642aabfa,
        type: 3}
      propertyPath: m_LocalScale.y
      value: 0.6389686
      objectReference: {fileID: 0}
    - target: {fileID: -8679921383154817045, guid: 2012ae052de62b343b588c9f642aabfa,
        type: 3}
      propertyPath: m_LocalScale.z
      value: 0.9931988
      objectReference: {fileID: 0}
    - target: {fileID: -8679921383154817045, guid: 2012ae052de62b343b588c9f642aabfa,
        type: 3}
      propertyPath: m_LocalPosition.x
      value: -2.1635
      objectReference: {fileID: 0}
    - target: {fileID: -8679921383154817045, guid: 2012ae052de62b343b588c9f642aabfa,
        type: 3}
      propertyPath: m_LocalPosition.y
      value: -1.197
      objectReference: {fileID: 0}
    - target: {fileID: -8679921383154817045, guid: 2012ae052de62b343b588c9f642aabfa,
        type: 3}
      propertyPath: m_LocalPosition.z
      value: -0.97023
      objectReference: {fileID: 0}
    - target: {fileID: -8679921383154817045, guid: 2012ae052de62b343b588c9f642aabfa,
        type: 3}
      propertyPath: m_LocalRotation.w
      value: 0.9998077
      objectReference: {fileID: 0}
    - target: {fileID: -8679921383154817045, guid: 2012ae052de62b343b588c9f642aabfa,
        type: 3}
      propertyPath: m_LocalRotation.x
      value: 0.013599824
      objectReference: {fileID: 0}
    - target: {fileID: -8679921383154817045, guid: 2012ae052de62b343b588c9f642aabfa,
        type: 3}
      propertyPath: m_LocalRotation.y
      value: 0.0011426003
      objectReference: {fileID: 0}
    - target: {fileID: -8679921383154817045, guid: 2012ae052de62b343b588c9f642aabfa,
        type: 3}
      propertyPath: m_LocalRotation.z
      value: 0.014079288
      objectReference: {fileID: 0}
    - target: {fileID: -8679921383154817045, guid: 2012ae052de62b343b588c9f642aabfa,
        type: 3}
      propertyPath: m_LocalEulerAnglesHint.x
      value: 1.5560001
      objectReference: {fileID: 0}
    - target: {fileID: -8679921383154817045, guid: 2012ae052de62b343b588c9f642aabfa,
        type: 3}
      propertyPath: m_LocalEulerAnglesHint.y
      value: 0.15300001
      objectReference: {fileID: 0}
    - target: {fileID: -8679921383154817045, guid: 2012ae052de62b343b588c9f642aabfa,
        type: 3}
      propertyPath: m_LocalEulerAnglesHint.z
      value: 1.616
      objectReference: {fileID: 0}
    - target: {fileID: -7511558181221131132, guid: 2012ae052de62b343b588c9f642aabfa,
        type: 3}
      propertyPath: m_Materials.Array.data[0]
      value: 
      objectReference: {fileID: 2100000, guid: a297a333bec726b438e2a9e912c78134, type: 2}
    - target: {fileID: 919132149155446097, guid: 2012ae052de62b343b588c9f642aabfa,
        type: 3}
      propertyPath: m_Name
      value: Wood-Plank-A-2
      objectReference: {fileID: 0}
    m_RemovedComponents: []
  m_SourcePrefab: {fileID: 100100000, guid: 2012ae052de62b343b588c9f642aabfa, type: 3}
--- !u!4 &5844866362759046797 stripped
Transform:
  m_CorrespondingSourceObject: {fileID: -8679921383154817045, guid: 2012ae052de62b343b588c9f642aabfa,
    type: 3}
  m_PrefabInstance: {fileID: 6239626783631376742}
  m_PrefabAsset: {fileID: 0}
--- !u!1001 &6239626783676278793
PrefabInstance:
  m_ObjectHideFlags: 0
  serializedVersion: 2
  m_Modification:
    m_TransformParent: {fileID: 2923719361224378579}
    m_Modifications:
    - target: {fileID: -8679921383154817045, guid: 2012ae052de62b343b588c9f642aabfa,
        type: 3}
      propertyPath: m_RootOrder
      value: 4
      objectReference: {fileID: 0}
    - target: {fileID: -8679921383154817045, guid: 2012ae052de62b343b588c9f642aabfa,
        type: 3}
      propertyPath: m_LocalScale.x
      value: 0.5873465
      objectReference: {fileID: 0}
    - target: {fileID: -8679921383154817045, guid: 2012ae052de62b343b588c9f642aabfa,
        type: 3}
      propertyPath: m_LocalScale.y
      value: 0.61033803
      objectReference: {fileID: 0}
    - target: {fileID: -8679921383154817045, guid: 2012ae052de62b343b588c9f642aabfa,
        type: 3}
      propertyPath: m_LocalScale.z
      value: 0.905005
      objectReference: {fileID: 0}
    - target: {fileID: -8679921383154817045, guid: 2012ae052de62b343b588c9f642aabfa,
        type: 3}
      propertyPath: m_LocalPosition.x
      value: -2.63
      objectReference: {fileID: 0}
    - target: {fileID: -8679921383154817045, guid: 2012ae052de62b343b588c9f642aabfa,
        type: 3}
      propertyPath: m_LocalPosition.y
      value: -0.8437
      objectReference: {fileID: 0}
    - target: {fileID: -8679921383154817045, guid: 2012ae052de62b343b588c9f642aabfa,
        type: 3}
      propertyPath: m_LocalPosition.z
      value: -0.95779
      objectReference: {fileID: 0}
    - target: {fileID: -8679921383154817045, guid: 2012ae052de62b343b588c9f642aabfa,
        type: 3}
      propertyPath: m_LocalRotation.w
      value: 0.71147823
      objectReference: {fileID: 0}
    - target: {fileID: -8679921383154817045, guid: 2012ae052de62b343b588c9f642aabfa,
        type: 3}
      propertyPath: m_LocalRotation.x
      value: -0.024937814
      objectReference: {fileID: 0}
    - target: {fileID: -8679921383154817045, guid: 2012ae052de62b343b588c9f642aabfa,
        type: 3}
      propertyPath: m_LocalRotation.y
      value: -0.025464145
      objectReference: {fileID: 0}
    - target: {fileID: -8679921383154817045, guid: 2012ae052de62b343b588c9f642aabfa,
        type: 3}
      propertyPath: m_LocalRotation.z
      value: 0.70180374
      objectReference: {fileID: 0}
    - target: {fileID: -8679921383154817045, guid: 2012ae052de62b343b588c9f642aabfa,
        type: 3}
      propertyPath: m_LocalEulerAnglesHint.x
      value: 0.015000001
      objectReference: {fileID: 0}
    - target: {fileID: -8679921383154817045, guid: 2012ae052de62b343b588c9f642aabfa,
        type: 3}
      propertyPath: m_LocalEulerAnglesHint.y
      value: -4.085
      objectReference: {fileID: 0}
    - target: {fileID: -8679921383154817045, guid: 2012ae052de62b343b588c9f642aabfa,
        type: 3}
      propertyPath: m_LocalEulerAnglesHint.z
      value: 89.215004
      objectReference: {fileID: 0}
    - target: {fileID: -7511558181221131132, guid: 2012ae052de62b343b588c9f642aabfa,
        type: 3}
      propertyPath: m_Materials.Array.data[0]
      value: 
      objectReference: {fileID: 2100000, guid: 4055f67dbd3845546b5c4e4e23ea9b35, type: 2}
    - target: {fileID: 919132149155446097, guid: 2012ae052de62b343b588c9f642aabfa,
        type: 3}
      propertyPath: m_Name
      value: Wood-Plank-A-5
      objectReference: {fileID: 0}
    m_RemovedComponents: []
  m_SourcePrefab: {fileID: 100100000, guid: 2012ae052de62b343b588c9f642aabfa, type: 3}
--- !u!4 &5844866362672205794 stripped
Transform:
  m_CorrespondingSourceObject: {fileID: -8679921383154817045, guid: 2012ae052de62b343b588c9f642aabfa,
    type: 3}
  m_PrefabInstance: {fileID: 6239626783676278793}
  m_PrefabAsset: {fileID: 0}
--- !u!1001 &6239626784037080921
PrefabInstance:
  m_ObjectHideFlags: 0
  serializedVersion: 2
  m_Modification:
    m_TransformParent: {fileID: 2923719361224378579}
    m_Modifications:
    - target: {fileID: -8679921383154817045, guid: 2012ae052de62b343b588c9f642aabfa,
        type: 3}
      propertyPath: m_RootOrder
      value: 5
      objectReference: {fileID: 0}
    - target: {fileID: -8679921383154817045, guid: 2012ae052de62b343b588c9f642aabfa,
        type: 3}
      propertyPath: m_LocalScale.x
      value: -1.0382564
      objectReference: {fileID: 0}
    - target: {fileID: -8679921383154817045, guid: 2012ae052de62b343b588c9f642aabfa,
        type: 3}
      propertyPath: m_LocalScale.y
      value: 0.89798164
      objectReference: {fileID: 0}
    - target: {fileID: -8679921383154817045, guid: 2012ae052de62b343b588c9f642aabfa,
        type: 3}
      propertyPath: m_LocalScale.z
      value: 1.7971033
      objectReference: {fileID: 0}
    - target: {fileID: -8679921383154817045, guid: 2012ae052de62b343b588c9f642aabfa,
        type: 3}
      propertyPath: m_LocalPosition.x
      value: -2.164
      objectReference: {fileID: 0}
    - target: {fileID: -8679921383154817045, guid: 2012ae052de62b343b588c9f642aabfa,
        type: 3}
      propertyPath: m_LocalPosition.y
      value: -1.165
      objectReference: {fileID: 0}
    - target: {fileID: -8679921383154817045, guid: 2012ae052de62b343b588c9f642aabfa,
        type: 3}
      propertyPath: m_LocalPosition.z
      value: -0.883
      objectReference: {fileID: 0}
    - target: {fileID: -8679921383154817045, guid: 2012ae052de62b343b588c9f642aabfa,
        type: 3}
      propertyPath: m_LocalRotation.w
      value: -0.7116566
      objectReference: {fileID: 0}
    - target: {fileID: -8679921383154817045, guid: 2012ae052de62b343b588c9f642aabfa,
        type: 3}
      propertyPath: m_LocalRotation.x
      value: -0.02886549
      objectReference: {fileID: 0}
    - target: {fileID: -8679921383154817045, guid: 2012ae052de62b343b588c9f642aabfa,
        type: 3}
      propertyPath: m_LocalRotation.y
      value: 0.031636797
      objectReference: {fileID: 0}
    - target: {fileID: -8679921383154817045, guid: 2012ae052de62b343b588c9f642aabfa,
        type: 3}
      propertyPath: m_LocalRotation.z
      value: 0.701221
      objectReference: {fileID: 0}
    - target: {fileID: -8679921383154817045, guid: 2012ae052de62b343b588c9f642aabfa,
        type: 3}
      propertyPath: m_LocalEulerAnglesHint.x
      value: -0.18800001
      objectReference: {fileID: 0}
    - target: {fileID: -8679921383154817045, guid: 2012ae052de62b343b588c9f642aabfa,
        type: 3}
      propertyPath: m_LocalEulerAnglesHint.y
      value: -4.905
      objectReference: {fileID: 0}
    - target: {fileID: -8679921383154817045, guid: 2012ae052de62b343b588c9f642aabfa,
        type: 3}
      propertyPath: m_LocalEulerAnglesHint.z
      value: 270.854
      objectReference: {fileID: 0}
    - target: {fileID: -7511558181221131132, guid: 2012ae052de62b343b588c9f642aabfa,
        type: 3}
      propertyPath: m_Materials.Array.data[0]
      value: 
      objectReference: {fileID: 2100000, guid: 6d65aabb814fcd4449a7974c62b8d705, type: 2}
    - target: {fileID: 919132149155446097, guid: 2012ae052de62b343b588c9f642aabfa,
        type: 3}
      propertyPath: m_Name
      value: Wood-Plank-A-1
      objectReference: {fileID: 0}
    m_RemovedComponents: []
  m_SourcePrefab: {fileID: 100100000, guid: 2012ae052de62b343b588c9f642aabfa, type: 3}
--- !u!4 &5844866362345154738 stripped
Transform:
  m_CorrespondingSourceObject: {fileID: -8679921383154817045, guid: 2012ae052de62b343b588c9f642aabfa,
    type: 3}
  m_PrefabInstance: {fileID: 6239626784037080921}
  m_PrefabAsset: {fileID: 0}
--- !u!1001 &6239626784327750024
PrefabInstance:
  m_ObjectHideFlags: 0
  serializedVersion: 2
  m_Modification:
    m_TransformParent: {fileID: 2923719361224378579}
    m_Modifications:
    - target: {fileID: -8679921383154817045, guid: 2012ae052de62b343b588c9f642aabfa,
        type: 3}
      propertyPath: m_RootOrder
      value: 7
      objectReference: {fileID: 0}
    - target: {fileID: -8679921383154817045, guid: 2012ae052de62b343b588c9f642aabfa,
        type: 3}
      propertyPath: m_LocalScale.x
      value: -0.7707773
      objectReference: {fileID: 0}
    - target: {fileID: -8679921383154817045, guid: 2012ae052de62b343b588c9f642aabfa,
        type: 3}
      propertyPath: m_LocalScale.y
      value: 0.6383789
      objectReference: {fileID: 0}
    - target: {fileID: -8679921383154817045, guid: 2012ae052de62b343b588c9f642aabfa,
        type: 3}
      propertyPath: m_LocalScale.z
      value: 0.79153126
      objectReference: {fileID: 0}
    - target: {fileID: -8679921383154817045, guid: 2012ae052de62b343b588c9f642aabfa,
        type: 3}
      propertyPath: m_LocalPosition.x
      value: -2.1625
      objectReference: {fileID: 0}
    - target: {fileID: -8679921383154817045, guid: 2012ae052de62b343b588c9f642aabfa,
        type: 3}
      propertyPath: m_LocalPosition.y
      value: -0.51
      objectReference: {fileID: 0}
    - target: {fileID: -8679921383154817045, guid: 2012ae052de62b343b588c9f642aabfa,
        type: 3}
      propertyPath: m_LocalPosition.z
      value: -0.97876
      objectReference: {fileID: 0}
    - target: {fileID: -8679921383154817045, guid: 2012ae052de62b343b588c9f642aabfa,
        type: 3}
      propertyPath: m_LocalRotation.w
      value: 0.9999104
      objectReference: {fileID: 0}
    - target: {fileID: -8679921383154817045, guid: 2012ae052de62b343b588c9f642aabfa,
        type: 3}
      propertyPath: m_LocalRotation.x
      value: 0.0044570477
      objectReference: {fileID: 0}
    - target: {fileID: -8679921383154817045, guid: 2012ae052de62b343b588c9f642aabfa,
        type: 3}
      propertyPath: m_LocalRotation.y
      value: 0.0011670347
      objectReference: {fileID: 0}
    - target: {fileID: -8679921383154817045, guid: 2012ae052de62b343b588c9f642aabfa,
        type: 3}
      propertyPath: m_LocalRotation.z
      value: -0.012568116
      objectReference: {fileID: 0}
    - target: {fileID: -8679921383154817045, guid: 2012ae052de62b343b588c9f642aabfa,
        type: 3}
      propertyPath: m_LocalEulerAnglesHint.x
      value: 0.512
      objectReference: {fileID: 0}
    - target: {fileID: -8679921383154817045, guid: 2012ae052de62b343b588c9f642aabfa,
        type: 3}
      propertyPath: m_LocalEulerAnglesHint.y
      value: 0.127
      objectReference: {fileID: 0}
    - target: {fileID: -8679921383154817045, guid: 2012ae052de62b343b588c9f642aabfa,
        type: 3}
      propertyPath: m_LocalEulerAnglesHint.z
      value: -1.44
      objectReference: {fileID: 0}
    - target: {fileID: -7511558181221131132, guid: 2012ae052de62b343b588c9f642aabfa,
        type: 3}
      propertyPath: m_Materials.Array.data[0]
      value: 
      objectReference: {fileID: 2100000, guid: ac11a13408785b045b5e265c5e20ee49, type: 2}
    - target: {fileID: 919132149155446097, guid: 2012ae052de62b343b588c9f642aabfa,
        type: 3}
      propertyPath: m_Name
      value: Wood-Plank-A-3
      objectReference: {fileID: 0}
    m_RemovedComponents: []
  m_SourcePrefab: {fileID: 100100000, guid: 2012ae052de62b343b588c9f642aabfa, type: 3}
--- !u!4 &5844866362029323875 stripped
Transform:
  m_CorrespondingSourceObject: {fileID: -8679921383154817045, guid: 2012ae052de62b343b588c9f642aabfa,
    type: 3}
  m_PrefabInstance: {fileID: 6239626784327750024}
  m_PrefabAsset: {fileID: 0}
--- !u!1001 &6239626784362276680
PrefabInstance:
  m_ObjectHideFlags: 0
  serializedVersion: 2
  m_Modification:
    m_TransformParent: {fileID: 2923719361224378579}
    m_Modifications:
    - target: {fileID: -8679921383154817045, guid: 2012ae052de62b343b588c9f642aabfa,
        type: 3}
      propertyPath: m_RootOrder
      value: 1
      objectReference: {fileID: 0}
    - target: {fileID: -8679921383154817045, guid: 2012ae052de62b343b588c9f642aabfa,
        type: 3}
      propertyPath: m_LocalScale.x
      value: 0.86285347
      objectReference: {fileID: 0}
    - target: {fileID: -8679921383154817045, guid: 2012ae052de62b343b588c9f642aabfa,
        type: 3}
      propertyPath: m_LocalScale.y
      value: 0.80976176
      objectReference: {fileID: 0}
    - target: {fileID: -8679921383154817045, guid: 2012ae052de62b343b588c9f642aabfa,
        type: 3}
      propertyPath: m_LocalScale.z
      value: 0.96044713
      objectReference: {fileID: 0}
    - target: {fileID: -8679921383154817045, guid: 2012ae052de62b343b588c9f642aabfa,
        type: 3}
      propertyPath: m_LocalPosition.x
      value: -2.1627
      objectReference: {fileID: 0}
    - target: {fileID: -8679921383154817045, guid: 2012ae052de62b343b588c9f642aabfa,
        type: 3}
      propertyPath: m_LocalPosition.y
      value: -0.494
      objectReference: {fileID: 0}
    - target: {fileID: -8679921383154817045, guid: 2012ae052de62b343b588c9f642aabfa,
        type: 3}
      propertyPath: m_LocalPosition.z
      value: -0.92007
      objectReference: {fileID: 0}
    - target: {fileID: -8679921383154817045, guid: 2012ae052de62b343b588c9f642aabfa,
        type: 3}
      propertyPath: m_LocalRotation.w
      value: 0.99995846
      objectReference: {fileID: 0}
    - target: {fileID: -8679921383154817045, guid: 2012ae052de62b343b588c9f642aabfa,
        type: 3}
      propertyPath: m_LocalRotation.x
      value: 0.0012666116
      objectReference: {fileID: 0}
    - target: {fileID: -8679921383154817045, guid: 2012ae052de62b343b588c9f642aabfa,
        type: 3}
      propertyPath: m_LocalRotation.y
      value: 0.0013097872
      objectReference: {fileID: 0}
    - target: {fileID: -8679921383154817045, guid: 2012ae052de62b343b588c9f642aabfa,
        type: 3}
      propertyPath: m_LocalRotation.z
      value: 0.008933858
      objectReference: {fileID: 0}
    - target: {fileID: -8679921383154817045, guid: 2012ae052de62b343b588c9f642aabfa,
        type: 3}
      propertyPath: m_LocalEulerAnglesHint.x
      value: 0.14400001
      objectReference: {fileID: 0}
    - target: {fileID: -8679921383154817045, guid: 2012ae052de62b343b588c9f642aabfa,
        type: 3}
      propertyPath: m_LocalEulerAnglesHint.y
      value: 0.15100001
      objectReference: {fileID: 0}
    - target: {fileID: -8679921383154817045, guid: 2012ae052de62b343b588c9f642aabfa,
        type: 3}
      propertyPath: m_LocalEulerAnglesHint.z
      value: 1.024
      objectReference: {fileID: 0}
    - target: {fileID: -7511558181221131132, guid: 2012ae052de62b343b588c9f642aabfa,
        type: 3}
      propertyPath: m_Materials.Array.data[0]
      value: 
      objectReference: {fileID: 2100000, guid: a297a333bec726b438e2a9e912c78134, type: 2}
    - target: {fileID: 919132149155446097, guid: 2012ae052de62b343b588c9f642aabfa,
        type: 3}
      propertyPath: m_Name
      value: Wood-Plank-A-2
      objectReference: {fileID: 0}
    m_RemovedComponents: []
  m_SourcePrefab: {fileID: 100100000, guid: 2012ae052de62b343b588c9f642aabfa, type: 3}
--- !u!4 &5844866361994526883 stripped
Transform:
  m_CorrespondingSourceObject: {fileID: -8679921383154817045, guid: 2012ae052de62b343b588c9f642aabfa,
    type: 3}
  m_PrefabInstance: {fileID: 6239626784362276680}
  m_PrefabAsset: {fileID: 0}
--- !u!1001 &6239626784418998684
PrefabInstance:
  m_ObjectHideFlags: 0
  serializedVersion: 2
  m_Modification:
    m_TransformParent: {fileID: 2923719361224378579}
    m_Modifications:
    - target: {fileID: -8679921383154817045, guid: 399df38919e84d848aa738d698a07d4d,
        type: 3}
      propertyPath: m_RootOrder
      value: 0
      objectReference: {fileID: 0}
    - target: {fileID: -8679921383154817045, guid: 399df38919e84d848aa738d698a07d4d,
        type: 3}
      propertyPath: m_LocalScale.x
      value: 0.6000298
      objectReference: {fileID: 0}
    - target: {fileID: -8679921383154817045, guid: 399df38919e84d848aa738d698a07d4d,
        type: 3}
      propertyPath: m_LocalScale.y
      value: 0.6000298
      objectReference: {fileID: 0}
    - target: {fileID: -8679921383154817045, guid: 399df38919e84d848aa738d698a07d4d,
        type: 3}
      propertyPath: m_LocalScale.z
      value: 0.6000298
      objectReference: {fileID: 0}
    - target: {fileID: -8679921383154817045, guid: 399df38919e84d848aa738d698a07d4d,
        type: 3}
      propertyPath: m_LocalPosition.x
      value: -2.158
      objectReference: {fileID: 0}
    - target: {fileID: -8679921383154817045, guid: 399df38919e84d848aa738d698a07d4d,
        type: 3}
      propertyPath: m_LocalPosition.y
      value: -0.84482
      objectReference: {fileID: 0}
    - target: {fileID: -8679921383154817045, guid: 399df38919e84d848aa738d698a07d4d,
        type: 3}
      propertyPath: m_LocalPosition.z
      value: -0.935
      objectReference: {fileID: 0}
    - target: {fileID: -8679921383154817045, guid: 399df38919e84d848aa738d698a07d4d,
        type: 3}
      propertyPath: m_LocalRotation.w
      value: 1
      objectReference: {fileID: 0}
    - target: {fileID: -8679921383154817045, guid: 399df38919e84d848aa738d698a07d4d,
        type: 3}
      propertyPath: m_LocalRotation.x
      value: -0
      objectReference: {fileID: 0}
    - target: {fileID: -8679921383154817045, guid: 399df38919e84d848aa738d698a07d4d,
        type: 3}
      propertyPath: m_LocalRotation.y
      value: -0
      objectReference: {fileID: 0}
    - target: {fileID: -8679921383154817045, guid: 399df38919e84d848aa738d698a07d4d,
        type: 3}
      propertyPath: m_LocalRotation.z
      value: -0
      objectReference: {fileID: 0}
    - target: {fileID: -8679921383154817045, guid: 399df38919e84d848aa738d698a07d4d,
        type: 3}
      propertyPath: m_LocalEulerAnglesHint.x
      value: 0
      objectReference: {fileID: 0}
    - target: {fileID: -8679921383154817045, guid: 399df38919e84d848aa738d698a07d4d,
        type: 3}
      propertyPath: m_LocalEulerAnglesHint.y
      value: 0
      objectReference: {fileID: 0}
    - target: {fileID: -8679921383154817045, guid: 399df38919e84d848aa738d698a07d4d,
        type: 3}
      propertyPath: m_LocalEulerAnglesHint.z
      value: 0
      objectReference: {fileID: 0}
    - target: {fileID: -7511558181221131132, guid: 399df38919e84d848aa738d698a07d4d,
        type: 3}
      propertyPath: m_Materials.Array.data[0]
      value: 
      objectReference: {fileID: 2100000, guid: 963c1ba1247ef1d4989e88499950a42e, type: 2}
    - target: {fileID: 919132149155446097, guid: 399df38919e84d848aa738d698a07d4d,
        type: 3}
      propertyPath: m_Name
      value: Wood-Plank-B
      objectReference: {fileID: 0}
    m_RemovedComponents: []
  m_SourcePrefab: {fileID: 100100000, guid: 399df38919e84d848aa738d698a07d4d, type: 3}
--- !u!4 &5844866361938136695 stripped
Transform:
  m_CorrespondingSourceObject: {fileID: -8679921383154817045, guid: 399df38919e84d848aa738d698a07d4d,
    type: 3}
  m_PrefabInstance: {fileID: 6239626784418998684}
  m_PrefabAsset: {fileID: 0}
